,strike,mean,conf_interval,time,training_time,trials,batch_size,tol,training_trials,training_batches,epochs,cv_batches,steps,layers,init_lr,lr_scheduler,Var
0,0.7,0.4746001064777374,0.0008601409795797959,3.2870235443115234,1.841996192932129,116000.0,500000,0.001,30000,2000,20,2000,"(200, 1000)","[array([50, 50, 50])]",0.001,nan,0.021455432637822236
1,0.8,0.4261729121208191,0.0010277885015068187,1.8375005722045898,0.8774850368499756,64000.0,500000,0.001,30000,2000,20,2000,"(200, 1000)","[array([50, 50, 50])]",0.001,nan,0.01690158726127411
2,0.9,0.3827691972255707,0.0009405014454302939,1.9590785503387451,0.8673794269561768,80000.0,500000,0.001,30000,2000,20,2000,"(200, 1000)","[array([50, 50, 50])]",0.001,nan,0.017690859377129442
3,1.0,0.34342312812805176,0.0010586717412534045,1.7430579662322998,0.8387503623962402,60000.0,500000,0.001,30000,2000,20,2000,"(200, 1000)","[array([50, 50, 50])]",0.001,nan,0.01681178783592773
4,1.1,0.30989953875541687,0.0009801707950640923,1.774592638015747,0.8679304122924805,56000.0,500000,0.001,30000,2000,20,2000,"(200, 1000)","[array([50, 50, 50])]",0.001,nan,0.013450287024952047
5,1.2,0.27919191122055054,0.0010267789222302036,1.634932279586792,0.8076856136322021,48000.0,500000,0.001,30000,2000,20,2000,"(200, 1000)","[array([50, 50, 50])]",0.001,nan,0.012651299461634622
6,1.3,0.251935750246048,0.001124519128814205,1.7024140357971191,0.8607137203216553,50000.0,500000,0.001,30000,2000,20,2000,"(200, 1000)","[array([50, 50, 50])]",0.001,nan,0.015806790888363235
