,strike,mean,conf_interval,time,trials,batch_size,steps
0,1.0,0.344047874212265,0.00010359944280935451,301.0789659023285,249662504.0,500000,1000
1,1.0,0.3441191613674164,0.00010535587352933362,302.00344920158386,241153377.0,350000,1000
2,1.0,0.3441612422466278,0.00010269209451507777,510.52030968666077,253808610.0,200000,1000
3,1.0,0.3441559672355652,0.00010149635636480525,976.1443190574646,260475783.0,100000,1000
4,1.0,0.34407204389572144,0.0001020982235786505,1348.0988945960999,256950530.0,70000,1000
5,1.0,0.34413790702819824,9.229988791048527e-05,2260.8140795230865,314354591.0,50000,1000
6,1.0,0.3441150188446045,0.00010437648597871885,2422.610855579376,246077480.0,36000,1000
7,1.0,0.34416380524635315,0.0001006159873213619,4659.944461584091,264917936.0,20000,1000
8,1.0,0.3440794050693512,0.00010329450014978647,11853.9176030159,250771746.0,10000,1000
