,strike,mean,conf_interval,time,training_time,trials,batch_size,tol,training_trials,training_batches,epochs,cv_batches,steps,layers,init_lr,lr_scheduler,Var
0,0.7,0.735741913318634,0.00010052815147400944,58.55526161193848,1.2759878635406494,5534000.0,350000,0.0001,30000,2000,20,2000,"(200, 1000)","[array([50, 50, 50])]",0.001,nan,0.013981525431854047
1,0.8,0.6480064988136292,0.00010302351894948807,20.580946683883667,0.8380570411682129,1940000.0,350000,0.0001,30000,2000,20,2000,"(200, 1000)","[array([50, 50, 50])]",0.001,nan,0.005147715046516731
2,0.9,0.5656149387359619,0.00010194708163191112,12.376977920532227,0.820976734161377,1140000.0,350000,0.0001,30000,2000,20,2000,"(200, 1000)","[array([50, 50, 50])]",0.001,nan,0.0029620641241801114
3,1.0,0.4898078441619873,0.00010195484294897869,12.693620920181274,0.829103946685791,1142000.0,350000,0.0001,30000,2000,20,2000,"(200, 1000)","[array([50, 50, 50])]",0.001,nan,0.002967712545214385
4,1.1,0.4215020537376404,0.00010403799678842178,8.420162439346313,0.7827408313751221,842000.0,350000,0.0001,30000,2000,20,2000,"(200, 1000)","[array([50, 50, 50])]",0.001,nan,0.0022784319552948823
5,1.2,0.36084064841270447,0.00010333071764399333,11.962823629379272,0.7435202598571777,1198000.0,350000,0.0001,30000,2000,20,2000,"(200, 1000)","[array([50, 50, 50])]",0.001,nan,0.0031978325440423913
6,1.3,0.30778828263282776,0.00010209324114210719,8.784416913986206,0.7769119739532471,878000.0,350000,0.0001,30000,2000,20,2000,"(200, 1000)","[array([50, 50, 50])]",0.001,nan,0.0022878550601746483
