,strike,mean,conf_interval,time,trials,batch_size,steps
0,0.0,1.390907883644104,0.00010102962551172823,10.132598400115967,"[235113872, 11439263, 2926428, 745032]",10000,1000
1,0.1,1.2968618869781494,0.000102975893241819,9.744322061538696,"[221934064, 11566885, 2895139, 729003]",10000,1000
2,0.2,1.2026515007019043,0.00010125255357706919,10.010363578796387,"[233011456, 11523819, 2956872, 742686]",10000,1000
3,0.3,1.1085442304611206,0.000102493169833906,9.750660181045532,"[229020448, 11065768, 2904789, 705788]",10000,1000
4,0.4,1.0144659280776978,0.00010189021850237623,9.989574909210205,"[228742160, 11418513, 2942474, 744010]",10000,1000
5,0.5,0.9203609824180603,0.00010158953227801248,9.9748215675354,"[230766896, 11667943, 2916056, 735519]",10000,1000
6,0.6,0.8270916938781738,0.00010286387987434864,9.71706485748291,"[222791792, 11336541, 2910674, 720662]",10000,1000
7,0.7,0.7356849908828735,0.00010242910502711311,9.87108564376831,"[225812688, 10899728, 2792838, 723723]",10000,1000
8,0.8,0.6479744911193848,0.00010188356827711686,9.610477447509766,"[219584288, 11175611, 2896915, 724483]",10000,1000
9,0.9,0.5656454563140869,0.00010172867769142613,9.248081922531128,"[213431600, 10871985, 2794407, 705117]",10000,1000
10,1.0,0.48981955647468567,0.00010233186912955716,8.79617428779602,"[199768672, 10517882, 2664074, 665598]",10000,1000
11,1.1,0.42154809832572937,0.00010235511581413448,8.183213949203491,"[185841008, 9874871, 2571334, 648849]",10000,1000
12,1.2,0.36088061332702637,0.00010197847586823627,7.85774827003479,"[173810336, 9375228, 2362162, 609140]",10000,1000
13,1.3,0.3078444004058838,0.00010223096614936367,7.047595024108887,"[155623072, 8887337, 2239862, 562649]",10000,1000
14,1.4,0.2618790566921234,0.00010167845175601542,6.552345514297485,"[143140416, 7977765, 2064276, 534610]",10000,1000
15,1.5,0.22237561643123627,9.967827645596117e-05,6.165966510772705,"[133831120, 7772099, 1912319, 493749]",10000,1000
16,1.6,0.18853317201137543,0.00010216719238087535,5.230278730392456,"[112634232, 6607069, 1706959, 429309]",10000,1000
17,1.7,0.1598050594329834,0.00010374531848356128,4.489829778671265,"[94076560, 5948847, 1568195, 385112]",10000,1000
18,1.8,0.13526961207389832,9.951792162610218e-05,4.338052272796631,"[92507072, 5395909, 1484196, 368363]",10000,1000
19,1.9,0.11464892327785492,0.0001011566273518838,3.6739563941955566,"[77564304, 5035920, 1261999, 319245]",10000,1000
20,2.0,0.09729140996932983,0.00010063924128189683,3.359001398086548,"[65793104, 4689529, 1233555, 304167]",10000,1000
21,2.1,0.08261715620756149,0.00010056917381007224,2.9535515308380127,"[58670724, 4181535, 1066163, 260367]",10000,1000
22,2.2,0.07007049024105072,0.000103966893220786,2.494020938873291,"[47270948, 3528003, 856399, 221866]",10000,1000
23,2.3,0.059646397829055786,0.00010266469325870275,2.3675215244293213,"[42221704, 3161923, 820544, 203662]",10000,1000
24,2.4,0.05076296627521515,0.00010090052091982216,2.000255584716797,"[37744368, 3002411, 736095, 191286]",10000,1000
25,2.5,0.04322124272584915,0.00010382047912571579,1.7229256629943848,"[30671406, 2500936, 601023, 175635]",10000,1000
26,2.6,0.036896299570798874,9.999303438235074e-05,1.7000489234924316,"[30188906, 2362178, 592261, 141770]",10000,1000
27,2.7,0.03163593262434006,0.00010074156307382509,1.572754144668579,"[25303844, 2160170, 535434, 130636]",10000,1000
28,2.8,0.027118245139718056,0.00010676481178961694,1.1556615829467773,"[19403992, 1645474, 463985, 107177]",10000,1000
29,2.9,0.023258334025740623,0.00010614439815981314,1.0396816730499268,"[17341268, 1599494, 370832, 96603]",10000,1000
30,3.0,0.0198145043104887,0.00010803155601024628,0.9156641960144043,"[13771529, 1365088, 351496, 82829]",10000,1000
31,3.1,0.017027564346790314,0.00010792618559207767,0.8551685810089111,"[11596351, 1211409, 319615, 80369]",10000,1000
32,3.2,0.014730716124176979,0.0001013782384688966,0.8839247226715088,"[11853166, 1410617, 298883, 76509]",10000,1000
33,3.3,0.012669749557971954,0.00010607193689793348,0.5917677879333496,"[9725303, 1026433, 257705, 61624]",10000,1000
34,3.4,0.010991252027451992,0.0001054416861734353,0.5402169227600098,"[8140756, 1033344, 203890, 59401]",10000,1000
35,3.5,0.009523529559373856,0.00010730350186349824,0.5159187316894531,"[8167661, 780919, 183413, 52268]",10000,1000
36,3.6,0.00822969526052475,0.00010108478454640135,0.5034699440002441,"[7313039, 927964, 185268, 42053]",10000,1000
37,3.7,0.007260896265506744,0.00010820221359608695,0.4153447151184082,"[4991595, 756088, 152706, 43392]",10000,1000
38,3.8,0.006220185197889805,0.00010830132669070736,0.40579867362976074,"[4624698, 589321, 192206, 32451]",10000,1000
39,3.9,0.005396086722612381,0.00010234511137241498,0.41103053092956543,"[5343526, 712164, 146897, 28062]",10000,1000
40,4.0,0.004783992189913988,0.0001316045963903889,0.28102898597717285,"[2220147, 394206, 105148, 17289]",10000,1000
