,strike,mean,conf_interval,time,trials,batch_size,steps,sigma
0,0,1.0,0.0,0.5363376140594482,100000,100000,1000,0.0
1,0,0.946339539875294,0.004770245994739079,0.5085256099700928,100000,100000,1000,1.0
2,0,0.8817075361263301,0.0050902339544732535,0.5074639320373535,100000,100000,1000,2.0
3,0,0.8783450175578733,0.0050977766587454645,0.5032565593719482,100000,100000,1000,3.0
4,0,0.8728261973486448,0.00511606879272198,0.5028610229492188,100000,100000,1000,4.0
5,0,0.8653296453265079,0.005139548032846502,0.5023157596588135,100000,100000,1000,5.0
6,0,0.8551017091789354,0.005170589674591589,0.499082088470459,100000,100000,1000,6.0
7,0,0.8408021416701493,0.005208251958874204,0.500342845916748,100000,100000,1000,7.0
8,0,0.8203005519351722,0.005265017019801217,0.5067031383514404,100000,100000,1000,8.0
9,0,0.788263912646063,0.00536110211480053,0.4992704391479492,100000,100000,1000,9.0
10,0,NaN,NaN,0.5008442401885986,100000,100000,1000,10.0
11,0,NaN,NaN,0.4995574951171875,100000,100000,1000,11.0
12,0,NaN,NaN,0.5043468475341797,100000,100000,1000,12.0
13,0,NaN,NaN,0.49976086616516113,100000,100000,1000,13.0
14,0,NaN,NaN,0.49897193908691406,100000,100000,1000,14.0
15,0,NaN,NaN,0.5010578632354736,100000,100000,1000,15.0
16,0,NaN,NaN,0.5033814907073975,100000,100000,1000,16.0
17,0,NaN,NaN,0.4976818561553955,100000,100000,1000,17.0
18,0,NaN,NaN,0.4967036247253418,100000,100000,1000,18.0
19,0,NaN,NaN,0.4959280490875244,100000,100000,1000,19.0
20,0,NaN,NaN,0.4985356330871582,100000,100000,1000,20.0
21,0,NaN,NaN,0.5072002410888672,100000,100000,1000,21.0
22,0,NaN,NaN,0.5075526237487793,100000,100000,1000,22.0
23,0,NaN,NaN,0.5046546459197998,100000,100000,1000,23.0
24,0,NaN,NaN,0.494997501373291,100000,100000,1000,24.0
25,0,NaN,NaN,0.5052487850189209,100000,100000,1000,25.0
26,0,NaN,NaN,0.4980144500732422,100000,100000,1000,26.0
27,0,NaN,NaN,0.5091888904571533,100000,100000,1000,27.0
28,0,NaN,NaN,0.5075178146362305,100000,100000,1000,28.0
29,0,NaN,NaN,0.4970395565032959,100000,100000,1000,29.0
30,0,NaN,NaN,0.5037658214569092,100000,100000,1000,30.0
31,0,NaN,NaN,0.49631500244140625,100000,100000,1000,31.0
32,0,NaN,NaN,0.4934418201446533,100000,100000,1000,32.0
33,0,NaN,NaN,0.521263837814331,100000,100000,1000,33.0
34,0,NaN,NaN,0.5093016624450684,100000,100000,1000,34.0
35,0,NaN,NaN,0.5040268898010254,100000,100000,1000,35.0
