,strike,mean,conf_interval,time,training_time,trials,batch_size,tol,training_trials,training_batches,epochs,cv_batches,steps,layers,lr_scheduler,sigma,Var,
0,0,1999.990508,565.4027259,7.187662601,0.976635933,100000,100000,0.0001,30000,2000,20,2000,"(200, 1000)","[array([50, 50, 50])]",nan,0,7992006061,44.69922237
1,0,1896.111402,536.0358641,7.045026779,0.921417713,100000,100000,0.0001,30000,2000,20,2000,"(200, 1000)","[array([50, 50, 50])]",nan,1,7183361190,44.6992259
2,0,1766.55374,499.4095718,6.881669998,0.887951612,100000,100000,0.0001,30000,2000,20,2000,"(200, 1000)","[array([50, 50, 50])]",nan,2,6235248011,44.699227
3,0,1759.954829,497.5440423,7.004964113,0.973843575,100000,100000,0.0001,30000,2000,20,2000,"(200, 1000)","[array([50, 50, 50])]",nan,3,6188751850,44.69922705
4,0,1749.849141,494.6871378,6.903044701,0.901525021,100000,100000,0.0001,30000,2000,20,2000,"(200, 1000)","[array([50, 50, 50])]",nan,4,6117884107,44.69922714
5,0,1733.833027,490.1593398,6.893375874,0.884447336,100000,100000,0.0001,30000,2000,20,2000,"(200, 1000)","[array([50, 50, 50])]",nan,5,6006404460,44.69922727
6,0,1713.849435,484.5099257,7.764936209,1.686039686,100000,100000,0.0001,30000,2000,20,2000,"(200, 1000)","[array([50, 50, 50])]",nan,6,5868746703,44.69922744
7,0,1685.541689,476.5072512,6.915941954,0.890186548,100000,100000,0.0001,30000,2000,20,2000,"(200, 1000)","[array([50, 50, 50])]",nan,7,5676479012,44.6992277
8,0,1643.545067,464.6346953,6.947336197,0.879442692,100000,100000,0.0001,30000,2000,20,2000,"(200, 1000)","[array([50, 50, 50])]",nan,8,5397135002,44.6992281
9,0,1576.637002,445.7196091,6.878807783,0.872810364,100000,100000,0.0001,30000,2000,20,2000,"(200, 1000)","[array([50, 50, 50])]",nan,9,4966649248,44.69922884
10,0,1606.919166,454.2879942,8.427124023,2.459962606,100000,100000,0.0001,30000,2000,20,2000,"(200, 1000)","[array([50, 50, 50])]",nan,10,5159439541,44.69997015
11,0,1770.133481,500.6416771,7.291103125,1.292315006,100000,100000,0.0001,30000,2000,20,2000,"(200, 1000)","[array([50, 50, 50])]",nan,11,6266052221,44.71888725
12,0,-19435.26128,5494.552766,6.980958939,0.892421722,100000,100000,0.0001,30000,2000,20,2000,"(200, 1000)","[array([50, 50, 50])]",nan,12,7.54753E+11,-44.70045763
13,0,-60272.88405,17039.40113,7.385074615,1.252367735,100000,100000,0.0001,30000,2000,20,2000,"(200, 1000)","[array([50, 50, 50])]",nan,13,7.25853E+12,-44.69946843
14,0,-78446.61094,22177.1436,8.096217871,2.01175952,100000,100000,0.0001,30000,2000,20,2000,"(200, 1000)","[array([50, 50, 50])]",nan,14,1.22956E+13,-44.69937255
15,0,-79778.5596,22553.68803,7.659685135,1.654183388,100000,100000,0.0001,30000,2000,20,2000,"(200, 1000)","[array([50, 50, 50])]",nan,15,1.27167E+13,-44.69936796
16,0,-74260.56962,20993.74367,7.968648434,1.98597312,100000,100000,0.0001,30000,2000,20,2000,"(200, 1000)","[array([50, 50, 50])]",nan,16,1.10184E+13,-44.69939225
17,0,-63365.13752,17913.58959,7.333928108,1.261740208,100000,100000,0.0001,30000,2000,20,2000,"(200, 1000)","[array([50, 50, 50])]",nan,17,8.02242E+12,-44.6994565
18,0,-52943.03707,14967.25254,7.490796566,1.306940794,100000,100000,0.0001,30000,2000,20,2000,"(200, 1000)","[array([50, 50, 50])]",nan,18,5.60047E+12,-44.69955914
19,0,-40038.81971,11319.23054,7.443576097,1.283253193,100000,100000,0.0001,30000,2000,20,2000,"(200, 1000)","[array([50, 50, 50])]",nan,19,3.20312E+12,-44.69980649
20,0,-25825.73241,7301.228318,6.992539644,0.871922493,100000,100000,0.0001,30000,2000,20,2000,"(200, 1000)","[array([50, 50, 50])]",nan,20,1.3327E+12,-44.70059326
21,0,-15175.23912,4290.449876,7.369735479,1.262093782,100000,100000,0.0001,30000,2000,20,2000,"(200, 1000)","[array([50, 50, 50])]",nan,21,4.60199E+11,-44.70306428
22,0,-5446.127802,1540.617063,6.936370611,0.90110302,100000,100000,0.0001,30000,2000,20,2000,"(200, 1000)","[array([50, 50, 50])]",nan,22,59337523396,-44.72773225
23,0,-1161.680463,332.7792262,7.238185883,1.236441374,100000,100000,0.0001,30000,2000,20,2000,"(200, 1000)","[array([50, 50, 50])]",nan,23,2768550335,-45.29388014
24,0,2387.78981,677.0742731,7.299134016,1.254182339,100000,100000,0.0001,30000,2000,20,2000,"(200, 1000)","[array([50, 50, 50])]",nan,24,11460739282,44.83428229
25,0,2545.548211,721.46544,7.284382343,1.243309259,100000,100000,0.0001,30000,2000,20,2000,"(200, 1000)","[array([50, 50, 50])]",nan,25,13012809527,44.81301972
26,0,1782.69459,506.4541894,7.251175404,1.281930923,100000,100000,0.0001,30000,2000,20,2000,"(200, 1000)","[array([50, 50, 50])]",nan,26,6412396149,44.91932543
27,0,-1724.46386,489.9548199,6.910217285,0.892694235,100000,100000,0.0001,30000,2000,20,2000,"(200, 1000)","[array([50, 50, 50])]",nan,27,6001393139,-44.92333002
28,0,-8498.998833,2403.168936,6.88702035,0.893467903,100000,100000,0.0001,30000,2000,20,2000,"(200, 1000)","[array([50, 50, 50])]",nan,28,1.44381E+11,-44.70813321
29,0,-18389.64868,5199.018642,7.256413221,1.286482096,100000,100000,0.0001,30000,2000,20,2000,"(200, 1000)","[array([50, 50, 50])]",nan,29,6.75745E+11,-44.70107285
30,0,-30506.08331,8624.279783,6.971596718,0.906555891,100000,100000,0.0001,30000,2000,20,2000,"(200, 1000)","[array([50, 50, 50])]",nan,30,1.85946E+12,-44.69988332
31,0,-44458.01948,12568.48904,7.613101959,1.642433167,100000,100000,0.0001,30000,2000,20,2000,"(200, 1000)","[array([50, 50, 50])]",nan,31,3.94917E+12,-44.69953067
32,0,-61296.5197,17328.75467,7.747095346,1.641639233,100000,100000,0.0001,30000,2000,20,2000,"(200, 1000)","[array([50, 50, 50])]",nan,32,7.50714E+12,-44.69938428
33,0,-80398.73122,22728.98678,7.251470804,1.266406059,100000,100000,0.0001,30000,2000,20,2000,"(200, 1000)","[array([50, 50, 50])]",nan,33,1.29152E+13,-44.69931679
34,0,-101031.2667,28561.85107,7.349539518,1.282360792,100000,100000,0.0001,30000,2000,20,2000,"(200, 1000)","[array([50, 50, 50])]",nan,34,2.03945E+13,-44.69928294
35,0,-123748.6481,34984.10947,7.254422665,1.274091244,100000,100000,0.0001,30000,2000,20,2000,"(200, 1000)","[array([50, 50, 50])]",nan,35,3.05972E+13,-44.6992632
