,strike,mean,conf_interval,time,training_time,trials,batch_size,tol,training_trials,training_batches,epochs,cv_batches,steps,layers,init_lr,lr_scheduler,Var
0,0.7,0.47530514001846313,8.644459067106764e-05,141.52522110939026,2.0475404262542725,11530000.0,500000,0.0001,30000,2000,20,2000,"(200, 1000)","[array([50, 50, 50])]",0.001,nan,0.021539963366251413
1,0.8,0.42629075050354004,9.207290136094173e-05,146.37137413024902,1.0310561656951904,12038000.0,500000,0.0001,30000,2000,20,2000,"(200, 1000)","[array([50, 50, 50])]",0.001,nan,0.025512792977132822
2,0.9,0.382727712392807,9.532776815262048e-05,90.35636162757874,1.0007712841033936,7370000.0,500000,0.0001,30000,2000,20,2000,"(200, 1000)","[array([50, 50, 50])]",0.001,nan,0.016743503879418364
3,1.0,0.34421083331108093,0.00010148812241234326,95.28832769393921,1.0039989948272705,7770000.0,500000,0.0001,30000,2000,20,2000,"(200, 1000)","[array([50, 50, 50])]",0.001,nan,0.02000743723959553
4,1.1,0.3097076416015625,0.00010359853653007196,79.05507779121399,1.0251073837280273,6466000.0,500000,0.0001,30000,2000,20,2000,"(200, 1000)","[array([50, 50, 50])]",0.001,nan,0.017349339670600598
5,1.2,0.2792510986328125,0.0001083475669136198,58.30916213989258,1.036266565322876,4726000.0,500000,0.0001,30000,2000,20,2000,"(200, 1000)","[array([50, 50, 50])]",0.001,nan,0.013869859195083711
6,1.3,0.2523822486400604,9.870312883623773e-05,82.31474900245667,1.0198779106140137,6748000.0,500000,0.0001,30000,2000,20,2000,"(200, 1000)","[array([50, 50, 50])]",0.001,nan,0.016435272992160188
